{
    "policy": {
      "description": "Cleanup old logs.",
      "default_state": "stored",
      "schema_version": 1,
      "states": [{
          "name": "stored",
          "actions": [],
          "transitions": [{
            "state_name": "deleted",
            "conditions": {
              "min_index_age": "${ retention_days }d"
            }
          }]
        },
        {
          "name": "deleted",
          "actions": [{
            "delete": {}
          }]
        }
      ]
    }
  }
